[Colors]
NumofColors=64

Color0=0f 0f 0f
Color1=00 00 40
Color2=00 00 60
Color3=00 00 a0
Color4=00 00 d0
Color5=00 20 da
Color6=00 40 e6
Color7=00 60 f2
Color8=00 80 ff
Color9=00 88 ff
Color10=00 90 ff
Color11=00 98 ff
Color12=00 aa ff
Color13=14 b0 bb
Color14=2c ba 77
Color15=36 c0 33
Color16=50 ca 00
Color17=36 d0 14
Color18=2c d6 2c
Color19=14 da 36
Color20=00 df 50
Color21=14 e6 36
Color22=2c ef 2c
Color23=36 f6 14
Color24=50 fa 00
Color25=7a fb 00
Color26=b6 fc 00
Color27=df fd 00
Color28=FF fd 00
Color29=FF f0 00
Color30=FF ea 00
Color31=FF e2 00
Color32=ff dd 00
Color33=ff c9 00
Color34=ff b3 00
Color35=ff 9d 00
Color36=ff 8f 00
Color37=ff 8b 01
Color38=ff 87 01
Color39=ff 84 02
color40=ff 7f 02
color41=f2 73 02
color42=ed 66 01
color43=e4 5a 00
color44=df 4f 00
color45=d2 3d 00
color46=cd 24 00
color47=c4 12 00
color48=bf 00 00
color49=b8 00 00
color50=b0 00 00
color51=a8 00 00
color52=9f 00 00
color53=95 00 00
color54=8f 00 00
color55=85 00 00
color56=7f 00 00
color57=9b 40 40
color58=b8 80 80
color59=d6 b0 b0
color60=f0 f0 f0
color61=f0 f0 f0
color62=f0 f0 f0
color63=f0 f0 f0


[LookUp]
NumofRanges=64
Color0=0	
Range0=140
Color1=1	
Range1=145
Color2=2	
Range2=146
Color3=3	
Range3=148
Color4=4	
Range4=150
Color5=5	
Range5=151
Color6=6	
Range6=152
Color7=7	
Range7=153
Color8=8	
Range8=155
Color9=9	
Range9=156
Color10=10	
Range10=157
Color11=11	
Range11=158
Color12=12	
Range12=160
Color13=13	
Range13=161
Color14=14	
Range14=162
Color15=15	
Range15=163
Color16=16	
Range16=165
Color17=17	
Range17=166
Color18=18	
Range18=167
Color19=19	
Range19=168
Color20=20	
Range20=170
Color21=21	
Range21=171
Color22=22	
Range22=172
Color23=23	
Range23=173
Color24=24	
Range24=175
Color25=25	
Range25=176
Color26=26	
Range26=177
Color27=27	
Range27=178
Color28=28	
Range28=180
Color29=29	
Range29=181
Color30=30	
Range30=182
Color31=31	
Range31=183
Color32=32	
Range32=185
Color33=33	
Range33=186
Color34=34	
Range34=187
Color35=35	
Range35=188
Color36=36	
Range36=190
Color37=37	
Range37=191
Color38=38	
Range38=192
Color39=39	
Range39=193
Color40=40	
Range40=195
Color41=41	
Range41=196
Color42=42	
Range42=197
Color43=43	
Range43=198
Color44=44	
Range44=200
Color45=45	
Range45=201
Color46=46	
Range46=202
Color47=47	
Range47=203
Color48=48	
Range48=205
Color49=49	
Range49=206
Color50=50	
Range50=207
Color51=51	
Range51=208
Color52=52	
Range52=210
Color53=53	
Range53=211
Color54=54	
Range54=212
Color55=55	
Range55=213
Color56=56	
Range56=215
Color57=57	
Range57=216
Color58=58	
Range58=217
Color59=59	
Range59=218
Color60=60	
Range60=220
Color61=61	
Range61=221
Color62=62	
Range62=222
Color63=63	
Range63=225
